Kickstart
…
http://www.r-tutor.com/r-introduction/data-frame

https://www.tidyverse.org

We will be using only 10,000 or so of the entries for practical considerations while compiling this tutorial, but feel free to use the entire dataset in your own explorations . For now, set a seed for the random number generator using set.seed(1234) to ensure that your results match up with this tutorials. We will use the dplyr::sample_frac() function along with a pipe (%>%) to create a sample of one out of every ten entries in the dataframe. More on pipes can be found here: http://www.hcbravo.org/IntroDataSci/bookdown-notes/principles-basic-operations.html#pipelines-of-operations.

set.seed(4321)
kickstarter <- read.csv("ks-projects-201801.csv")
kickstarter <- as_data_frame(kickstarter)
kickstarter <- kickstarter %>%
  sample_n(10000)
kickstarter

## # A tibble: 10,000 x 15
##         ID name    category main_category currency deadline  goal launched
##      <int> <fct>   <fct>    <fct>         <fct>    <fct>    <dbl> <fct>   
##  1  1.64e SKULL  Apparel  Fashion       AUD      2015-10  1500 2015-09
##  2  8.23e ECO La Product Design        GBP      2013-12   500 2013-11
##  3  1.79e Human  Comics   Comics        USD      2012-08 10000 2012-07
##  4  1.08e Queen  Documen Film & Video  USD      2012-06  1000 2012-05
##  5  5.41e CHOX - Food     Food          EUR      2016-12 20000 2016-11
##  6  5.16e "HUI - Gadgets  Technology    EUR      2015-11  2800 2015-09
##  7  6.13e Binoke Accesso Fashion       EUR      2017-08 30000 2017-07
##  8  7.77e "\"The Painting Art           USD      2013-12  5500 2013-11
##  9  1.86e Native Food     Food          USD      2013-05 20000 2013-04
## 10  1.94e Woven  Accesso Fashion       AUD      2018-01  2000 2017-11
## # ... with 9,990 more rows, and 7 more variables: pledged <dbl>,
## #   state <fct>, backers <int>, country <fct>, usd.pledged <dbl>,
## #   usd_pledged_real <dbl>, usd_goal_real <dbl>
…
Now we have a dataframe containing 10,000 observations from our original 300,000 superset. We have a few columns that we will have no use for for our purposes.

1.2 Tidying the Data

When we read in our data, R automatically parsed the columns into certain types of data. For ID, for example, it was parsed as an integer column, which is correct. However, for some columns such as dates and times, R will parse them as factor columns, which means that they assume discrete values, which does not express the nuance of dates and times. So we must tell R to re-parse these columns as datetime columns, using readr commands. While we are doing so, we will also drop the ancillary columns such as name that will have no relevance to any analysis we are interested in performing.

kickstarter <- kickstarter %>%
  mutate(launched=as.character(launched),
  deadline=as.character(deadline)) %>%
  dplyr::select(-name) %>%
  readr::type_convert(readr::cols(deadline=readr::col_datetime("%Y-%m-%d"), launched=readr::col_datetime("%Y-%m-%d %H:%M:%S")))

kickstarter

## # A tibble: 10,000 x 14
##           ID category     main_category currency deadline             goal
##        <int> <fct>        <fct>         <fct>    <dttm>              <dbl>
##  1    1.64e Apparel      Fashion       AUD      2015-10-17 00:00:00  1500
##  2    8.23e Product Des Design        GBP      2013-12-19 00:00:00   500
##  3    1.79e Comics       Comics        USD      2012-08-27 00:00:00 10000
##  4    1.08e Documentary  Film & Video  USD      2012-06-02 00:00:00  1000
##  5    5.41e Food         Food          EUR      2016-12-18 00:00:00 20000
##  6    5.16e Gadgets      Technology    EUR      2015-11-23 00:00:00  2800
##  7    6.13e Accessories  Fashion       EUR      2017-08-24 00:00:00 30000
##  8    7.77e Painting     Art           USD      2013-12-21 00:00:00  5500
##  9    1.86e Food         Food          USD      2013-05-20 00:00:00 20000
## 10    1.94e Accessories  Fashion       AUD      2018-01-13 00:00:00  2000
## # ... with 9,990 more rows, and 8 more variables: launched <dttm>,
## #   pledged <dbl>, state <fct>, backers <int>, country <fct>,
## #   usd.pledged <dbl>, usd_pledged_real <dbl>, usd_goal_real <dbl>
…
kickstarter <- kickstarter %>%
  filter(state != "live") %>%
  filter(state != "undefined") %>%
  mutate(state = ifelse(state=="successful", "success", "failure")) %>%
  select(-currency, -goal, -pledged, -usd.pledged, -ID) %>%
  rename(pledged = usd_pledged_real, goal = usd_goal_real)

kickstarter

## # A tibble: 9,829 x 9
##    category    main_category deadline            launched            state
##    <fct>       <fct>         <dttm>              <dttm>              <chr>
##  1 Apparel     Fashion       2015-10-17 00:00:00 2015-09-19 00:37:09 fail
##  2 Product De Design        2013-12-19 00:00:00 2013-11-28 02:37:40 fail
##  3 Comics      Comics        2012-08-27 00:00:00 2012-07-28 00:21:54 fail
##  4 Documentary Film & Video  2012-06-02 00:00:00 2012-05-03 22:14:14 fail
##  5 Food        Food          2016-12-18 00:00:00 2016-11-18 10:02:41 fail
##  6 Gadgets     Technology    2015-11-23 00:00:00 2015-09-29 12:59:43 succ
##  7 Accessories Fashion       2017-08-24 00:00:00 2017-07-25 00:04:16 fail
##  8 Painting    Art           2013-12-21 00:00:00 2013-11-21 01:42:36 fail
##  9 Food        Food          2013-05-20 00:00:00 2013-04-19 04:49:34 fail
## 10 Graphic De Design        2015-05-16 00:00:00 2015-04-16 22:15:19 fail
## # ... with 9,819 more rows, and 4 more variables: backers <int>,
## #   country <fct>, pledged <dbl>, goal <dbl>
…
    test_df %>%
      select(observed_label = state) %>%
      mutate(fold=fold_number) %>%
      mutate(prob_positive_rf1 = predict(rf1, newdata=test_df, type="prob")[,"success"]) %>%
      # add predicted labels for rf1 using a 0.5 probability cutoff
      mutate(predicted_label_rf1 = ifelse(prob_positive_rf1 > 0.5, "success", "failure")) %>%
      mutate(prob_positive_rf2 = predict(rf2, newdata=test_df, type="prob")[,"success"]) %>%
      # add predicted labels for rf2 using a 0.5 probability cutoff
      mutate(predicted_label_rf2 = ifelse(prob_positive_rf2 > 0.5, "success", "failure")) 
}) %>%
  # combine the ten result data frames into one
  purrr::reduce(bind_rows)
result_df

## # A tibble: 6,880 x 6
##    observed_label fold  prob_positive_r predicted_label prob_positive_r
##    <fct>          <chr>            <dbl> <chr>                       <dbl>
##  1 failure        Fold           0      failure                    0     
##  2 success        Fold           0      failure                    0     
##  3 failure        Fold           0      failure                    0     
##  4 failure        Fold           0.115  failure                    0.109 
##  5 success        Fold           0      failure                    0     
##  6 failure        Fold           0      failure                    0     
##  7 success        Fold           0      failure                    0     
##  8 failure        Fold           0      failure                    0     
##  9 failure        Fold           0      failure                    0     
## 10 failure        Fold           0.0350 failure                    0.0550
## # ... with 6,870 more rows, and 1 more variable: predicted_label_rf2 <chr>
…
From the ROC curve and AUROC values above, it appears that the ntree value does not particularly matter, at least between the two that were tested. The ROC curves overlap for most of their lengths, and the AUROC values are nearly indistinguishable. Therefore lets choose \(ntree = 800\) for our hyperparameter and run our classifier on the test dataset.

3.4.4 Test Dataset Evaluation

rf <- randomForest(state~., data=train_set, ntree=800)
results <- test_set %>%
      select(observed_label = state) %>%
      mutate(prob_positive_rf = predict(rf, newdata=test_set, type="prob")[,"success"]) %>%
      # add predicted labels for rf using 0.5 probability cutoff
      mutate(predicted_label_rf = ifelse(prob_positive_rf > 0.5, "success", "failure"))

results

## # A tibble: 2,949 x 3
##    observed_label prob_positive_rf predicted_label_rf
##    <fct>                     <dbl> <chr>             
##  1 failure                  0      failure           
##  2 failure                  0      failure           
##  3 failure                  0.0175 failure           
##  4 failure                  0      failure           
##  5 failure                  0      failure           
##  6 failure                  0      failure           
##  7 failure                  0.522  success           
##  8 failure                  0      failure           
##  9 failure                  0      failure           
## 10 success                  0      failure           
## # ... with 2,939 more rows
…
